-32 952
-32 -40 -48 848
-32 40 -48 848
-32 952
32 -40 -48 848
80 -48 848
992
32 -40 904
-992
-976 8
-80 -80 -80 -80 -80 -80 -80 -80 -80 -80 112
-80 -160 -80 -152 -320 160
-40 40 -40 -40 -40 -40 -40 656
-40 56 -64 64 -56 -64 -72 -72 440
-40 144 -48 -56 -64 -72 -80 -88 -96 -96 128
-40 88 -48 -48 -56 -64 -72 -80 -88 -96 -96 128
-8 8 -8 8 -8 8 -8 8 -8 848
24 -8 72 -8 848
48 -40 -16 24 -40 -64 712
-40 -40 -40 -40 800
